<svg xmlns="http://www.w3.org/2000/svg" viewBox="-23296.449 -8378.551 94 93.1">
  <defs>
    <style>
      .cls-1 {
        fill: #fce100;
      }
    </style>
  </defs>
  <g id="Group_83" data-name="Group 83" transform="translate(-23202.449 -8378.551) rotate(90)">
    <g id="Group_81" data-name="Group 81">
      <path id="Path_40" data-name="Path 40" class="cls-1" d="M39.4,83.1,70.6,46.9,36.4,11.6,48.4,0,93.1,46.3,52,94Z"/>
    </g>
    <g id="Group_82" data-name="Group 82">
      <path id="Path_41" data-name="Path 41" class="cls-1" d="M3,83.1,34.2,46.9,0,11.6,11.9,0,56.7,46.3,15.6,94Z"/>
    </g>
  </g>
</svg>
